[
    {
        "name": "THE FOOL",
        "url": "https://sv1.picz.in.th/images/2023/01/27/LBNbCu.png",
        "description_card": "เด็กหนุ่มผู้มีอิสระ ไร้เดียงสา พร้อมจะผจญภัยไปยังโลกกว้างก้าวเดินไปยังหน้าผาอันตรายอย่างไม่หวั่นเกรง พร้อมสุนัขคู่ใจตัวน้อยที่พร้อมปกป้องระหว่างทาง",
        "meaning_card": "ความกล้าที่จะเริ่มต้นสิ่งใหม่ ๆ โดยไม่กังวลอะไร การเดินทางไปสู่เส้นทางใหม่ที่ไม่รู้ว่ามีอะไรรออยู่ แต่ก็พร้อมที่จะเสี่ยงไป",
        "isReverse": false,
        "isDelete": false
    },
    {
        "name": "THE FOOL",
        "url": "https://sv1.picz.in.th/images/2023/01/27/LBNbCu.png",
        "description_card": "เด็กหนุ่มผู้มีอิสระ ไร้เดียงสา พร้อมจะผจญภัยไปยังโลกกว้างก้าวเดินไปยังหน้าผาอันตรายอย่างไม่หวั่นเกรง พร้อมสุนัขคู่ใจตัวน้อยที่พร้อมปกป้องระหว่างทาง",
        "meaning_card": "ความสัมพันธ์ที่ไม่รู้สึกระวังตัวในสิ่งที่ตามมา การได้รับบาดเจ็บ บาดแผล จากการที่ไม่สนใจรอบคอบในสิ่งที่จะเกิดขึ้น หรือ ความไม่แน่นอน การไม่ชัดเจน ในความสัมพันธ์ที่อาจเปลี่ยนแปลงได้ตลอดเวลา",
        "isReverse": true,
        "isDelete": false
    },
    {
        "name": "THE MAGICIAN",
        "url": "https://sv1.picz.in.th/images/2023/01/27/LBNjIZ.png",
        "description_card": "จอมเวทย์ผู้มีความสามารถในการเชื่อมระหว่างโลกและจักรวาลผู้มีเข้าใจในธรรมชาติและความสามารถในการควบคุมผสาน สรรสร้างทุกสรรพสิ่งจาก ดิน น้ำ ลม ไฟ",
        "meaning_card": "พร้อมลงมือทำตามแผนที่ตั้งใจไว้ มีทุกอย่างพร้อมแล้ว สามารถลุยทำตามแผนที่ตั้งใจไว้ได้เลย",
        "isReverse": false,
        "isDelete": false
    },
       {
        "name": "THE MAGICIAN",
        "url": "https://sv1.picz.in.th/images/2023/01/27/LBNjIZ.png",
        "description_card": "จอมเวทย์ผู้มีความสามารถในการเชื่อมระหว่างโลกและจักรวาลผู้มีเข้าใจในธรรมชาติและความสามารถในการควบคุมผสาน สรรสร้างทุกสรรพสิ่งจาก ดิน น้ำ ลม ไฟ",
        "meaning_card": "ความสัมพันธ์ที่เหมือนดี คนๆ นี้ที่ดูฉลาดหลักแหลม แต่อาจจะมีอะไรแอบแฝงอยู่ เช่น ต้องการบางสิ่งบางอย่างนอกจากความสัมพันธ์ที่ดี",
        "isReverse": true,
        "isDelete": false
    },
    {
        "name": "THE HIGH PRIESTESS",
        "url": "https://sv1.picz.in.th/images/2023/01/27/LBNotI.png",
        "description_card": "ราชินีพระจันทร์ เทพธิดาผู้สามารถติดต่อกับโลกแห่งจิตวิญญาณและความจริง เป็นเจ้าลัทธิที่มีอำนาจลึกลับ ซับซ้อนของผู้หญิงซ่อนอยู่เบื้องหลังความไร้เดียงสา",
        "meaning_card": "ฟังและเชื่อในสัญชาติญาณตัวเอง ไม่ต้องไปหาคำตอบจากข้างนอก เพราะไพ่นี้บ่งบอกว่าคุณมีสัญชาติญาณและลางสังหรณ์ที่พิเศษอยู่แล้ว",
        "isReverse": false,
        "isDelete": false
    },
    {
        "name": "THE HIGH PRIESTESS",
        "url": "https://sv1.picz.in.th/images/2023/01/27/LBNotI.png",
        "description_card": "ราชินีพระจันทร์ เทพธิดาผู้สามารถติดต่อกับโลกแห่งจิตวิญญาณและความจริง เป็นเจ้าลัทธิที่มีอำนาจลึกลับ ซับซ้อนของผู้หญิงซ่อนอยู่เบื้องหลังความไร้เดียงสา",
        "meaning_card": "ความคิด และจิตใต้สำนึกไม่สัมพันธ์ จนไม่รู้ว่าคุณต้องการอะไรกันแน่ เหมือนหลงทาง จนทำให้ความสัมพันธ์เป็นไปแบบเลื่อนลอย",
        "isReverse": true,
        "isDelete": false
    },
    {
        "name": "THE EMPRESS",
        "url": "https://sv1.picz.in.th/images/2023/01/27/LBNDoP.png",
        "description_card": "จักรพรรดินีผู้เลอโฉม และมีความเป็นแม่สูงนั่งอยู่สวนป่าที่มีความอุดมสมบูรณ์เธอพร้อมที่จะหล่อเลี้ยงและให้กำเนิดสรรพสิ่งพร้อมที่จะดูแลคนของเธอเป็นอย่างดี",
        "meaning_card": "เป็นไพ่ที่สื่อถึงสตรีเพศมากที่สุดในบรรดาไพ่ทั้งหมด เป็นสัญลักษณ์ของความอ่อนโยน ความโอบอ้อมอารี ความรัก และความงดงาม ถ้าเปิดได้ไพ่นี้ อาจจะหมายถึงชีวิตที่อุดมสมบูรณ์ เพียบพร้อม หรืออาจจะมีโอกาสตั้งครรภ์",
        "isReverse": false,
        "isDelete": false
    },
    {
        "name": "THE EMPRESS",
        "url": "https://sv1.picz.in.th/images/2023/01/27/LBNDoP.png",
        "description_card": "จักรพรรดินีผู้เลอโฉม และมีความเป็นแม่สูงนั่งอยู่สวนป่าที่มีความอุดมสมบูรณ์เธอพร้อมที่จะหล่อเลี้ยงและให้กำเนิดสรรพสิ่งพร้อมที่จะดูแลคนของเธอเป็นอย่างดี",
        "meaning_card": "ในมุมมองความสัมพันธ์จะหมายถึงความสัมพันธ์รู้สึกไม่ต่อไม่ได้ พัฒนาต่อไม่ได้ มีการทะเลาะเบาะแว้ง ถ้าเป็นผู้หญิง ผู้ชายที่คุณคบอยู่อาจจะรู้สึกว่าคุณไม่ดึงดูดและสนใจเค้าเท่าที่ควร ทำให้ความสัมพันธ์ดูไม่ราบรื่น",
        "isReverse":true,
        "isDelete": false
    },
    {
        "name": "THE EMPEROR",
        "url": "https://sv1.picz.in.th/images/2023/01/27/LBNAJt.png",
        "description_card": "จักรพรรดิผู้นิ่งสงบ การควบคุมคน ความนิ่ง ความมั่นคงทำให้สามารถสยบโลกไว้ได้ด้วยอำนาจของตัวเอง ชายผู้มีความเป็นพ่อสูงพร้อมห่วงใยดูแลและปกป้อง",
        "meaning_card": "ไพ่นี้บ่งบอกถึงอำนาจและความเป็นผู้นำ สามารถสื่อได้ว่าเรามีอำนาจในการตัดสินใจเรื่องต่าง ๆ ในชีวิต หรืออาจจะเป็นนิสัยที่ชอบเป็นผู้นำ สั่งคนอื่น ไม่ชอบตามใคร",
        "isReverse": false,
        "isDelete": false
    },
    {
        "name": "THE EMPEROR",
        "url": "https://sv1.picz.in.th/images/2023/01/27/LBNAJt.png",
        "description_card": "จักรพรรดิผู้นิ่งสงบ การควบคุมคน ความนิ่ง ความมั่นคงทำให้สามารถสยบโลกไว้ได้ด้วยอำนาจของตัวเอง ชายผู้มีความเป็นพ่อสูงพร้อมห่วงใยดูแลและปกป้อง",
        "meaning_card": "วามสัมพันธ์ที่มีการควบคุม เผด็จการ ความหัวรั้น การไม่ยอม ความเป็นเจ้าเข้าเจ้าของ",
        "isReverse": true,
        "isDelete": false
    },
    {
        "name": "THE HIEROPHANT",
        "url": "https://sv1.picz.in.th/images/2023/01/27/LBN8IV.png",
        "description_card": "สังฆราช ผู้ศึกษาความรู้ ธรรมเนียมปฏิบัติเป็นผู้นำด้านความเชื่อ ความศรัทธา ผู้เคร่งครัดในจารีตพร้อมที่จะถ่ายทอดความรู้ความเชื่อให้เหล่าศิษย์ทั้งหลาย",
        "meaning_card": "เป็นสัญลักษณ์ของผู้ส่งสาร สามารถตีความได้ว่าให้เราเชื่อตามกฎที่มีไว้อยู่แล้ว หรือมองหาที่พึ่งทางสิ่งศักดิ์สิทธิ์ช่วยอีกแรง",
        "isReverse": false,
        "isDelete": false
    },
    {
        "name": "THE HIEROPHANT",
        "url": "https://sv1.picz.in.th/images/2023/01/27/LBN8IV.png",
        "description_card": "สังฆราช ผู้ศึกษาความรู้ ธรรมเนียมปฏิบัติเป็นผู้นำด้านความเชื่อ ความศรัทธา ผู้เคร่งครัดในจารีตพร้อมที่จะถ่ายทอดความรู้ความเชื่อให้เหล่าศิษย์ทั้งหลาย",
        "meaning_card": " อาจเกิดการไม่สนใจ ไม่เข้าใจแนวคิดอีกฝ่าย เอาตัวเองเป็นที่ตั้ง ซึ่งจะทำให้ความสัมพันธ์ไปกันไม่ได้ เพราะไม่เข้าใจกัน",
        "isReverse": true,
        "isDelete": false
    },
    {
        "name": "THE LOVERS",
        "url": "https://sv1.picz.in.th/images/2023/01/27/LBNruN.png",
        "description_card": "เรื่องราวของอดัม กับ อีฟ ในสวนอีเดนที่พระเจ้าได้ให้ทั้งคู่เป็นคู่ครองกันและอยู่อย่างมีความสุขแต่งูก็ได้เสนอผลไม้แห่งความรู้ซึ่งเป็นผลไม้ต้องห้ามที่พระเจ้าได้ห้ามไว้ ถึงทางเลือกที่พวกเขาจะต้องเลือก",
        "meaning_card": "หากเปิดได้ไพ่เล่มนี้และนึกถึงเรื่องชีวิตรัก อาจจะหมายถึงว่าจะได้พบกับความรัก หรือต้องหมั่นเติมความรักความเอาใจใส่ให้กับชีวิตคู่ นอกจากนี้ยังตีความได้ถึงการตัดสินใจเลือกอะไรอย่างหนึ่งซึ่งไม่จำเป็นต้องเป็นความรักเสมอไป ",
        "isReverse": false,
        "isDelete": false
    },
    {
        "name": "THE LOVERS",
        "url": "https://sv1.picz.in.th/images/2023/01/27/LBNruN.png",
        "description_card": "เรื่องราวของอดัม กับ อีฟ ในสวนอีเดนที่พระเจ้าได้ให้ทั้งคู่เป็นคู่ครองกันและอยู่อย่างมีความสุขแต่งูก็ได้เสนอผลไม้แห่งความรู้ซึ่งเป็นผลไม้ต้องห้ามที่พระเจ้าได้ห้ามไว้ ถึงทางเลือกที่พวกเขาจะต้องเลือก",
        "meaning_card": "หมายถึงโชคชะตา หรือตัวเลือกที่เข้ามา ไม่ใช่สิ่งที่ดีหรือความรักที่ดีนัก ทำให้เราอาจตัดสินใจเลือกสิ่งไม่ดีเข้ามาในชีวิต ความสัมพันธ์ที่เข้ากันไม่ได้ เหมือนไม่ถูกชะตากัน เหมือนมีบางสิ่งที่ขาดหายไปในความสัมพันธ์",
        "isReverse": true,
        "isDelete": false
    },
    {
        "name": "THE CHARIOT",
        "url": "https://sv1.picz.in.th/images/2023/01/27/LBNVwQ.png",
        "description_card": "อัศวินรถม้าผู้ที่สามารถควบคุมรถม้าไปได้ด้วยพละกำลังพร้อมมุ่งหน้าเข้าประจันข้าศึก โดยไม่เกรงกลัวต่อสิ่งใด ",
        "meaning_card": "ไพ่ใบนี้สื่อถึงแรงขับเคลื่อนและความมุ่งมั่นตั้งใจ หากจับได้ไพ่ใบนี้และถามถึงชัยชนะ บอกเลยว่าอยู่ใกล้แค่เอื้อม เพียงแค่ใช้แรงใจและความรู้ที่มี ก็สามารถเอาชนะอะไรได้หลาย ๆ อย่างเลย",
        "isReverse": false,
        "isDelete": false
    },
    {
        "name": "THE CHARIOT",
        "url": "https://sv1.picz.in.th/images/2023/01/27/LBNVwQ.png",
        "description_card": "อัศวินรถม้าผู้ที่สามารถควบคุมรถม้าไปได้ด้วยพละกำลังพร้อมมุ่งหน้าเข้าประจันข้าศึก โดยไม่เกรงกลัวต่อสิ่งใด ",
        "meaning_card": "การที่เราไม่สามารถควบคุมสิ่งต่างๆ ในความสัมพันธ์ได้ เป็นความสัมพันธ์ที่ทำให้เกิดความรู้สึกอึดอัด สิ้นหวัง จนรู้สึกยอมแพ้ในความสัมพันธ์ไป",
        "isReverse": true,
        "isDelete": false
    },
    {
        "name": "STRENGTH",
        "url": "https://sv1.picz.in.th/images/2023/01/27/LBNXDS.png",
        "description_card": "หญิงสาวลูบหัวและคางของสิงโตด้วยใบหน้ายิ้มอย่างสงบซึ่งสิงโตก็ยอมเธอ โดยที่เธอไม่จำเป็นต้องออกแรงใดๆ",
        "meaning_card": "เป็นไพ่ที่ตรงตามชื่อเลยก็คือพลังกำลังหรือความเข้มแข็งทางจิตใจ ความแกร่ง การบริหารจัดการทุกอย่างที่เป็นไปได้อย่างดีและราบรื่น ไม่ว่าจะเจออุปสรรคอะไร ก็สามารถเอาชนะได้",
        "isReverse": false,
        "isDelete": false
    },
    {
        "name": "STRENGTH",
        "url": "https://sv1.picz.in.th/images/2023/01/27/LBNXDS.png",
        "description_card": "หญิงสาวลูบหัวและคางของสิงโตด้วยใบหน้ายิ้มอย่างสงบซึ่งสิงโตก็ยอมเธอ โดยที่เธอไม่จำเป็นต้องออกแรงใดๆ",
        "meaning_card": "การที่เราไม่สามารถควบคุมจิตใจ ความสงสัย ความอ่อนแอ ความกังวลในความสัมพันธ์ทำให้ความสัมพันธ์ไม่มั่นคง เช่น ฝ่ายหญิงรู้สึกว่าฝ่ายชายไม่สนใจ ฝ่ายชายก็รู้สึกว่าความรักของฝ่ายหญิงมันน่ารำคาญ ความรู้สึกอ่อนแอ อาจส่งผลให้ไม่มั่นใจในความสัมพันธ์ จนทำให้รู้สึกว่าตัวเองไม่ดีพอ เค้ารักเราจริงรึเปล่า จนทำให้เรารู้สึกสับสน และไม่เป็นตัวของตัวเอง",
        "isReverse": true,
        "isDelete": false
    },
    {
        "name": "THE HERMIT",
        "url": "https://sv1.picz.in.th/images/2023/01/27/LBNaJn.png",
        "description_card": "นักพรตผู้ออกเดินทางปลีกวิเวกขึ้นเขาไปเพียงลำพังค้นหาตัวเอง และเพื่อมองโลกในมุมที่กว้างกว่า",
        "meaning_card": "ไพ่นี้สื่อถึงผู้รักสันโดษ ความต้องการปลีกวิเวกจากทุกสิ่งไปอยู่คนเดียว หากจับได้ไพ่นี้ อาจจะสื่อถึงการหลบไปเยียวยาคนเดียว หรือให้อยู่ในความเงียบสงบและใช้เวลาไตร่ตรองสิ่งต่าง ๆ",
        "isReverse": false,
        "isDelete": false
    },
    {
        "name": "THE HERMIT",
        "url": "https://sv1.picz.in.th/images/2023/01/27/LBNaJn.png",
        "description_card": "นักพรตผู้ออกเดินทางปลีกวิเวกขึ้นเขาไปเพียงลำพังค้นหาตัวเอง และเพื่อมองโลกในมุมที่กว้างกว่า",
        "meaning_card": "การแยกตัว ปลีกวิเวกออกมาค้นหาคำตอบแต่ก็ไม่สามารถหาคำตอบได้ หรือไปผิดที่ผิดทาง อาจจะไปโฟกัสเรื่องอื่น เช่น งาน เงิน แทนที่จะมีความรัก ในความสัมพันธ์ก็อาจจะเหมือน เรารู้สึกเบื่อ รู้สึกไม่ดีในความสัมพันธ์แล้วก็ห่างออกมาไปมองหาคนอื่น ",
        "isReverse": true,
        "isDelete": false
    },
    {
        "name": "WHEEL OF FORTUNE",
        "url": "https://sv1.picz.in.th/images/2023/01/27/LBNvhg.png",
        "description_card": "วงล้อแห่งโชคชะตา ที่กำลังหมุนไป ส่งผลให้ชีวิตนั้นหมุนตามไปด้วย",
        "meaning_card": "บ่งบอกได้ถึงความไม่แน่นอน อะไรก็เปลี่ยนแปลงไปได้ อาจจะมีสิ่งใหม่ ๆ เข้ามาในชีวิต หากถึงวันนั้นก็เพียงแค่พร้อมรับมือกับมัน ",
        "isReverse": false,
        "isDelete": false
    },
    {
        "name": "WHEEL OF FORTUNE",
        "url": "https://sv1.picz.in.th/images/2023/01/27/LBNvhg.png",
        "description_card": "วงล้อแห่งโชคชะตา ที่กำลังหมุนไป ส่งผลให้ชีวิตนั้นหมุนตามไปด้วย",
        "meaning_card": "การเปลี่ยนแปลงของโชคชะตาเช่นกัน แต่เหมือนโชคจะไม่เข้าข้าง ในความรักก็ต้องทำใจถ้าใบนี้กลับหัว เพราะมันกำลังจะไปในทิศทางที่ไม่ดีครับ คนที่เข้ามาความสัมพันธ์ก็จะเปลี่ยนแปลงไปในทางที่ทำให้เรารู้สึกแย่ได้ ",
        "isReverse": true,
        "isDelete": false
    },
    {
        "name": "JUSTICE",
        "url": "https://sv1.picz.in.th/images/2023/01/27/LBNGEW.png",
        "description_card": "ผู้พิพากษาที่ตัดสินทุกอย่างด้วยความยุติธรรม มือขวาของเธอถือดาบพร้อมฟาดฟันตัดสิน มือซ้ายถือตาชั่งที่แสดงถึงความยุติธรรม เท่าเทียม ไม่โอนเอียง",
        "meaning_card": "กรรมใดใครก่อ กรรมนั้นย่อมคืนสนอง ทุกอย่าง ทำสิ่งใดย่อมได้สิ่งนั้น หากจับได้ไพ่ใบนี้ หมายถึงคุณจะได้รับความยุติธรรม หรือคุณเองต้องมีความยุติธรรมกับคนอื่น",
        "isReverse": false,
        "isDelete": false
    },
    {
        "name": "JUSTICE",
        "url": "https://sv1.picz.in.th/images/2023/01/27/LBNGEW.png",
        "description_card": "ผู้พิพากษาที่ตัดสินทุกอย่างด้วยความยุติธรรม มือขวาของเธอถือดาบพร้อมฟาดฟันตัดสิน มือซ้ายถือตาชั่งที่แสดงถึงความยุติธรรม เท่าเทียม ไม่โอนเอียง",
        "meaning_card": "ความไม่ยุติธรรม ไม่เท่าเทียม ไม่สมดุล อาจเป็นความสัมพันธ์ที่ไม่ดีที่ทำให้เรารู้สึกแย่ แต่เราไม่สามารถใช้เหตุผลในการตัดสินใจได้ ความสัมพันธ์ที่ไม่ซื่อสัตย์ ผิดถูกไม่สนใจ คนนึงนอกใจทำผิด แต่ก็ยังคบกันต่อไปได้",
        "isReverse": true,
        "isDelete": false
    },
    {
        "name": "THE HANGED MAN",
        "url": "https://sv1.picz.in.th/images/2023/01/27/LBNJV2.png",
        "description_card": "ชายผู้ถูกห้อยหัว ให้ทรมาน แต่ท่าทางของเขากลับทำให้รู้ว่าเขาไม่เป็นไร ด้วยขาที่ขัดกันเป็นเลข 4 ซึ่งมีความหมายถึงความสมดุล สงบนิ่ง และแสงล้อมรอบหัวหมายถึงการตระหนักรู้",
        "meaning_card": "ไพ่ชายหนุ่มห้อยหัวที่บ่งบอกถึงการชะงักอยู่กับที่ ไปไหนไม่ได้ ถ้าจับได้ไพ่ใบนี้ อาจสื่อถึงสถานการณ์ที่ต้องรอคอย ทำอะไรไม่ได้ หรืออาจจะเป็นนัยนะสื่อให้คุณปล่อยสิ่งที่กำลังยึดเหนี่ยวไว้จนทำให้ไปไหนไม่ได้",
        "isReverse": false,
        "isDelete": false
    },
    {
        "name": "THE HANGED MAN",
        "url": "https://sv1.picz.in.th/images/2023/01/27/LBNJV2.png",
        "description_card": "ชายผู้ถูกห้อยหัว ให้ทรมาน แต่ท่าทางของเขากลับทำให้รู้ว่าเขาไม่เป็นไร ด้วยขาที่ขัดกันเป็นเลข 4 ซึ่งมีความหมายถึงความสมดุล สงบนิ่ง และแสงล้อมรอบหัวหมายถึงการตระหนักรู้",
        "meaning_card": "บ่งบอกถึงความทรมานเหมือนกัน แต่ไม่ได้เรียนรู้ ไม่ได้เข้าใจอะไรเลย จนไม่เข้าใจอีกฝ่ายทำให้ต้องการเอาชนะ ต้องการเปลี่ยนแปลงอีกฝ่ายนึงให้ได้ จนกลายเป็นเห็นแก่ตัว และทำให้ความสัมพันธ์แย่ลงได้",
        "isReverse": true,
        "isDelete": false
    },
    {
        "name": "DEATH",
        "url": "https://sv1.picz.in.th/images/2023/01/27/LBNeY1.png",
        "description_card": "ยมทูตผู้มอบความตายแก่ทุกคนไม่เว้นแม้แต่จักรพรรดิ ได้เดินทางมาเพื่อจะมอบความตายให้แม่และเด็ก แต่ทว่าพระสังฆราชได้มาเจรจาให้หยุดยั้งไว้",
        "meaning_card": "ไพ่ความตาย อาจจะดูเหมือนเป็นไพ่ลางไม่ดี แต่จริง ๆ แล้วหมายถึงการเปลี่ยนแปลง การจบเพื่อเริ่มต้นสิ่งใหม่ เมื่อจับได้ไพ่ใบนี้ อาจจะหมายถึงคำแนะนำว่าทุกอย่างย่อมมีการเปลี่ยนแปลง หรือจะมีบางสิ่งบางอย่างเปลี่ยนแปลง ให้เตรียมตัวเตรียมใจรับกับมัน ",
        "isReverse": false,
        "isDelete": false
    },
    {
        "name": "DEATH",
        "url": "https://sv1.picz.in.th/images/2023/01/27/LBNeY1.png",
        "description_card": "ยมทูตผู้มอบความตายแก่ทุกคนไม่เว้นแม้แต่จักรพรรดิ ได้เดินทางมาเพื่อจะมอบความตายให้แม่และเด็ก แต่ทว่าพระสังฆราชได้มาเจรจาให้หยุดยั้งไว้",
        "meaning_card": "การที่ไม่สามารถเปลี่ยนแปลง การไม่ชอบการเปลี่ยนแปลง การยังไม่พร้อมที่จะจบสิ่งเก่าๆ และเริ่มอะไรใหม่ๆในความสัมพันธ์ อาจหมายถึงคนที่มีอดีตความหลังที่ไม่ดีหรือไม่สมหวังแล้วไม่สามารถก้าวข้ามไปได้ ทำให้ความสัมพันธ์เดินหน้าต่อไปไม่ได้",
        "isReverse": true,
        "isDelete": false
    },
    {
        "name": "TEMPERANCE",
        "url": "https://sv1.picz.in.th/images/2023/01/27/LBNmiy.png",
        "description_card": "เทวดาผู้ที่ยืนอยู่ตรงริมฝั่ง เท้าข้างนึงอยู่ในน้ำ เท้าข้างนึงอยู่บนพื้นดิน กำลังทำการทดลองผสมน้ำจากถ้วยสองถ้วย ถ้วยนึงเย็น ถ้วยนึงร้อน เข้าด้วยกัน",
        "meaning_card": "ไพ่ใบนี้สื่อถึงความสมดุล การผสมผสานที่ลงตัว ความสงบ อดทน เมื่อจับได้ อาจจะเป็นคำแนะนำให้คุณผ่อนปรนไปตามการเปลี่ยนแปลง อย่าพยายามฝืนหรือขัดขวาง ให้ทุกอย่างเป็นไปตามสิ่งที่ควรจะเปลี่ยน",
        "isReverse": false,
        "isDelete": false
    },
    {
        "name": "TEMPERANCE",
        "url": "https://sv1.picz.in.th/images/2023/01/27/LBNmiy.png",
        "description_card": "เทวดาผู้ที่ยืนอยู่ตรงริมฝั่ง เท้าข้างนึงอยู่ในน้ำ เท้าข้างนึงอยู่บนพื้นดิน กำลังทำการทดลองผสมน้ำจากถ้วยสองถ้วย ถ้วยนึงเย็น ถ้วยนึงร้อน เข้าด้วยกัน",
        "meaning_card": "ความไม่สมดุล ความสุดโต่ง เช่นรักมากก็เข้าหามากจนอีกฝ่ายอึดอัดถอยหนี การที่เราไม่พยายามปรับตัวปรับใจให้เค้ากัน ซึ่งทำให้ความรักไม่ยืดยาวมั่นคง",
        "isReverse": true,
        "isDelete": false
    },
    {
        "name": "THE DEVIL",
        "url": "https://sv1.picz.in.th/images/2023/01/27/LBNyuD.png",
        "description_card": "ปีศาจผู้ควบคุมให้คนสองคน ชายและหญิงมาผูกมัดกันด้วยโซ่ แต่ทว่าโซ่ที่มัดหลวมนี้อันที่จริงไม่ได้ผูกมัดทั้งสองคนไว้ แต่เป็นสิ่งที่อยู่ลึกลงไปในจิตใจที่ทำให้คนสองคนยังผูกติดกันอยู่",
        "meaning_card": "ไพ่ปีศาจ สัญลักษณ์ความลุ่มหลงมัวเมา การถูกผูกมัด ควบคุม ไร้อิสระ และสิ่งที่ผูกมัดคุณก็คือความรู้สึกและความคิดของตัวคุณเอง เมื่อจับได้ไพ่ใบนี้ ขอให้จงรู้ไว้ว่าคุณสามารถเป็นอิสระจากพันธนาการใด ๆ ก็ตามได้ด้วยการเปลี่ยนความคิด ",
        "isReverse": false,
        "isDelete": false
    },
    {
        "name": "THE DEVIL",
        "url": "https://sv1.picz.in.th/images/2023/01/27/LBNyuD.png",
        "description_card": "ปีศาจผู้ควบคุมให้คนสองคน ชายและหญิงมาผูกมัดกันด้วยโซ่ แต่ทว่าโซ่ที่มัดหลวมนี้อันที่จริงไม่ได้ผูกมัดทั้งสองคนไว้ แต่เป็นสิ่งที่อยู่ลึกลงไปในจิตใจที่ทำให้คนสองคนยังผูกติดกันอยู่",
        "meaning_card": "ไการที่มีอิสระจากสิ่งที่ยึดติด หลุดจากกรรม ความสัมพันธ์ที่ไม่หลงใหล",
        "isReverse": true,
        "isDelete": false
    },
    {
        "name": "THE TOWER",
        "url": "https://sv1.picz.in.th/images/2023/01/27/LBNFM9.png",
        "description_card": "หอคอยที่สร้างอยู่บนยอดเขา อันไม่มั่นคง โดนฟ้าผ่าพังทลายลงมา คนสองคนจึงต้องกระโดดหนีตาย ลงมาจากหอคอยนั้นโดยไม่แน่ใจว่าเบื้องล่างจะเป็นพื้นดิน หรือน้ำ",
        "meaning_card": "หมายถึงการทำลายล้าง พังทลาย การเปลี่ยนแปลงกะทันหันที่เราห้ามไม่ได้ เมื่อใดก็ตามที่จับได้ไพ่ใบนี้ แม้ว่าจะมีการเปลี่ยนแปลงกะทันหันที่ไม่คาดคิด ให้คิดเสียว่าเป็นการเปลี่ยนแปลงทำลายสิ่งเก่าเพื่อรอให้สิ่งใหม่เติบโตขึ้นมาทดแทน ",
        "isReverse": false,
        "isDelete": false
    },
    {
        "name": "THE TOWER",
        "url": "https://sv1.picz.in.th/images/2023/01/27/LBNFM9.png",
        "description_card": "หอคอยที่สร้างอยู่บนยอดเขา อันไม่มั่นคง โดนฟ้าผ่าพังทลายลงมา คนสองคนจึงต้องกระโดดหนีตาย ลงมาจากหอคอยนั้นโดยไม่แน่ใจว่าเบื้องล่างจะเป็นพื้นดิน หรือน้ำ",
        "meaning_card": "แปลว่าการเปลี่ยนแปลง การพังทลายเหมือนกัน แต่ไม่รวดเร็ว มันไม่กระทันหัน เป็นความสัมพันธ์ที่เราอาจจะฝืนๆ ไม่ยอมเปลี่ยนแปลงมัน แม้มันจะไม่ดีหรือเราต้องทนเจ็บต่อไปเรื่อยๆ",
        "isReverse": true,
        "isDelete": false
    },
    {
        "name": "THE STAR",
        "url": "https://sv1.picz.in.th/images/2023/01/27/LBNMwJ.png",
        "description_card": "แสงจากดวงดาวอันสุกใส ส่องให้เห็น หญิงสาวที่ริมน้ำ เธอเทโหลใส่น้ำสองใบ ใบนึงเทไปบนพื้นดินก่อให้เกิดการกำเนิดต้นไม้มากมาย ใบนึงเทลงในน้ำเพื่อเติมเต็มและก่อให้เกิดการหมุนเวียน",
        "meaning_card": "เป็นไพ่ที่สื่อถึงความหวังและการเยียวยา การเกิดใหม่ แรงบันดาลใจ หากจับได้ไพ่นี้ เป็นสัญญาณว่าจักรวาลกำลังเข้าข้างคุณและอยากให้คุณเชื่อมั่นว่าทางข้างหน้าที่โชคชะตาพาไปจะมีแต่สิ่งดี ๆ",
        "isReverse": false,
        "isDelete": false
    },
    {
        "name": "THE STAR",
        "url": "https://sv1.picz.in.th/images/2023/01/27/LBNMwJ.png",
        "description_card": "แสงจากดวงดาวอันสุกใส ส่องให้เห็น หญิงสาวที่ริมน้ำ เธอเทโหลใส่น้ำสองใบ ใบนึงเทไปบนพื้นดินก่อให้เกิดการกำเนิดต้นไม้มากมาย ใบนึงเทลงในน้ำเพื่อเติมเต็มและก่อให้เกิดการหมุนเวียน",
        "meaning_card": "การรู้สึกสิ้นหวังในความรัก การที่ไม่สามารถดูแลควบคุมอารมณ์ตัวเองได้ บางทีก็อ่อนไหวจนอยากร้องไห้ขึ้นมา บางทีก็หงุดหงิดขึ้นมา จนทำให้อีกฝ่ายรู้สึกอึดอัดและกลายเป็นความสัมพันธ์ที่ย่ำแย่ลง",
        "isReverse": true,
        "isDelete": false
    },
    {
        "name": "THE MOON",
        "url": "https://sv1.picz.in.th/images/2023/01/27/LBBWDb.png",
        "description_card": "แสงจากดวงจันทร์ ที่สะท้อนมาจากแสงอาทิตย์ ได้เปิดเผยความมืดมิดที่ปิดบังไว้ ความกังวล ความกลัว หลายสิ่งหลายอย่างที่เก็บซ่อนไว้ภายในกำลังจะเปิดเผยขึ้นมา",
        "meaning_card": "ไพ่นี้บ่งชี้ถึงจิตใต้สำนึก ความคิด ความเคลือบแคลงสงสัยภายใน หากคุณได้ไพ่นี้ สามารถตีความได้ว่าคุณกำลังกังวล และปล่อยให้ความกลัวมาครอบงำความคิด คุณเคลือบแคลงสงสัยในทุก ๆ อย่าง ",
        "isReverse": false,
        "isDelete": false
    },
    {
        "name": "THE MOON",
        "url": "https://sv1.picz.in.th/images/2023/01/27/LBBWDb.png",
        "description_card": "แสงจากดวงจันทร์ ที่สะท้อนมาจากแสงอาทิตย์ ได้เปิดเผยความมืดมิดที่ปิดบังไว้ ความกังวล ความกลัว หลายสิ่งหลายอย่างที่เก็บซ่อนไว้ภายในกำลังจะเปิดเผยขึ้นมา",
        "meaning_card": "ความจริงที่เปิดเผยขึ้นมา มีความกังวล ความกลัว แต่จะไม่อยู่เฉยๆ จะต่อสู้กับความรู้สึกนั้น เพื่อผ่านมันไป เพื่อมองสิ่งที่เกิดขึ้นในความเป็นจริง ไม่ใช่อารมณ์ ในแง่ที่ความสัมพันธ์ที่ไม่ดี ไม่ชัดเจน",
        "isReverse": true,
        "isDelete": false
    },
    {
        "name": "THE SUN",
        "url": "https://sv1.picz.in.th/images/2023/01/27/LBBdLf.png",
        "description_card": "ดวงอาทิตย์อันสดใส ส่องแสงสว่างไปยังทุกแห่งหน เด็กน้อยผู้นำความร่าเริงถือธงสีแดงบนม้ากำลังเข้ามา เบื้องหลังเป็นดอกทานตะวันที่บ่งบอกถึงความหวัง",
        "meaning_card": "สื่อถึงความสุข ความหรรษา มีชีวิตชีวา และการมองโลกในแง่บวก เป็นสัญญาณว่าจะมีสิ่งดี ๆ เข้ามา ทุกอย่างจะเป็นไปด้วยดี ",
        "isReverse": false,
        "isDelete": false
    },
    {
        "name": "THE SUN",
        "url": "https://sv1.picz.in.th/images/2023/01/27/LBBdLf.png",
        "description_card": "ดวงอาทิตย์อันสดใส ส่องแสงสว่างไปยังทุกแห่งหน เด็กน้อยผู้นำความร่าเริงถือธงสีแดงบนม้ากำลังเข้ามา เบื้องหลังเป็นดอกทานตะวันที่บ่งบอกถึงความหวัง",
        "meaning_card": "ความรู้สึกที่หมดแรง หมดไฟ ความรักไม่สดใสอย่างที่คาดหวังไว้ ไม่ใช่ว่าไม่รักกัน แต่รู้สึกว่ามันยังไม่ใช่ในบางอย่าง อาจเป็นความรู้สึกหดหู่ที่อยู่ดีๆ ก็เข้ามาบดบังความสดใสไว้",
        "isReverse": true,
        "isDelete": false
    },
    {
        "name": "JUDGEMENT",
        "url": "https://sv1.picz.in.th/images/2023/01/27/LBB7ha.png",
        "description_card": "วันพิพากษา เหล่าผู้วายชนม์ที่ลุกขึ้นมาเพื่อรอฟังเสียงแตรของเทพกาเบรียล ในวันพิพากษาใครจะได้ขึ้นสวรรค์ ใครจะตกนรกขึ้นอยู่กับสิ่งที่ได้ทำมา",
        "meaning_card": "เป็นไพ่ที่สื่อถึงเรื่องของการตัดสินใจเรื่องสำคัญ เป็นช่วงเวลาที่คุณจะทบทวนหรือเลือกสิ่งที่สำคัญ ไพ่ใบนี้ทำให้คุณรู้ว่าอนาคตเป็นสิ่งที่ไม่แน่นอน และคุณสามารถเปลี่ยนแปลงให้ดีขึ้นได้ด้วยการตัดสินใจของตัวเอง",
        "isReverse": false,
        "isDelete": false
    },
    {
        "name": "JUDGEMENT",
        "url": "https://sv1.picz.in.th/images/2023/01/27/LBB7ha.png",
        "description_card": "วันพิพากษา เหล่าผู้วายชนม์ที่ลุกขึ้นมาเพื่อรอฟังเสียงแตรของเทพกาเบรียล ในวันพิพากษาใครจะได้ขึ้นสวรรค์ ใครจะตกนรกขึ้นอยู่กับสิ่งที่ได้ทำมา",
        "meaning_card": "ความสัมพันธ์ที่คุณหลีกหนีอารมณ์ ความจริง คุณไม่ฟังเสียงในตัวคุณว่ามันดีหรือไม่ดีต่อตัวคุณเลย คุณฝืนทำในสิ่งที่อาจไม่ดีต่อตัวคุณ",
        "isReverse": true,
        "isDelete": false
    },
    {
        "name": "THE WORLD",
        "url": "https://sv1.picz.in.th/images/2023/01/27/LBBSEq.png",
        "description_card": "หญิงสาวที่เต้นระบำอยู่บนฟ้าอย่างร่าเริง โดยมีวงแหวนแห่งความสำเร็จล้อมรอบอยู่ สัญลักษณ์ตรงมุมทั้งสี่มุม แทนธาตุทั้งสี่ธาตุและหมายถึงไพ่ทั้งสี่ชนิด เหรียญ ไม้ ดาบ ถ้วย",
        "meaning_card": "หมายเลขสุดท้ายของสำรับใหญ่ ไพ่ที่สื่อถึงความสำเร็จ การเติมเต็ม หากคุณได้ไพ่นี้ อาจบ่งบอกได้ว่าคุณกำลังเดินในทางที่ถูกต้องแล้ว คุณพร้อมที่จะก้าวต่อไปแล้ว",
        "isReverse": false,
        "isDelete": false
    },
    {
        "name": "THE WORLD",
        "url": "https://sv1.picz.in.th/images/2023/01/27/LBBSEq.png",
        "description_card": "หญิงสาวที่เต้นระบำอยู่บนฟ้าอย่างร่าเริง โดยมีวงแหวนแห่งความสำเร็จล้อมรอบอยู่ สัญลักษณ์ตรงมุมทั้งสี่มุม แทนธาตุทั้งสี่ธาตุและหมายถึงไพ่ทั้งสี่ชนิด เหรียญ ไม้ ดาบ ถ้วย",
        "meaning_card": "เป็นความสัมพันธ์ที่ รู้สึกว่ามองไม่เห็นอนาคตหรือความสุขสมหวังสมบูรณ์ที่จะมาถึง ทำให้คุณรู้สึกเหนื่อย และกังวล ไม่มีความสุข หรืออาจหมายความว่าการที่ไม่พอใจในตัวเอง รู้สึกตัวเองไม่มีค่า ก็ได้",
        "isReverse": true,
        "isDelete": false
    }
]